<svg id="Capa_1" data-name="Capa 1" xmlns="http://www.w3.org/2000/svg" viewBox="0 0 512 511.88">
<path fill="#00aeef" d="M139.69,482.74l27.85-47.53c108,51.83,224.91.13,269.53-93.76,42.64-89.7,10.76-200-73.65-253.53-90.33-57.3-199.62-26.59-251.13,26.74l44.39,43.54L0,186.8C9.59,134.26,19,82.68,28.5,30.64,43.1,45.53,57.3,60,71.7,74.66,90.06,57.18,108.81,43,130,32.43c85.82-42.67,171.92-44.76,255.65,3.82,71,41.17,112.72,104.28,123.91,185.83,18.74,136.69-72.71,261.42-209.19,285.86-54.4,9.75-106.82,1.78-156.69-22.23a25.45,25.45,0,0,1-2.68-1.54A11.09,11.09,0,0,1,139.69,482.74Z" transform="translate(0 -0.12)"/>
<path fill="#00aeef" d="M273,131V256.11h112v50.24H223V131Z" transform="translate(0 -0.12)"/>
<path fill="#00aeef" d="M61.65,421.51l45.49-32.31c9.67,8.92,19,17.57,29,26.74l-28.06,48.12C90.67,452,75.66,437.88,61.65,421.51Z" transform="translate(0 -0.12)"/>
<path fill="#00aeef" d="M39,392.52l-25.66-54,55-14.14,17,35.19Z" transform="translate(0 -0.12)"/>
<path fill="#00aeef" d="M.28,250.94H56.51c.89,12.43,1.76,24.68,2.68,37.73L4.46,302.81C3.05,285.39,1.69,268.51.28,250.94Z" transform="translate(0 -0.12)"/>
</svg>